…
```
## [1] 59.77381
```

```r
# out of my own curiosity, I want to see what the max number of sightings per year is and when that was... 

bigfoot_yearly %>% 
  arrange(desc(n))
```

```
## # A tibble: 84 × 2
## # Groups:   year [84]
##     year     n
##    <dbl> <int>
##  1    NA   976
##  2  2004   241
##  3  2005   209
##  4  2006   176
##  5  2003   152
##  6  2000   146
##  7  2007   145
##  8  2008   141
##  9  2012   141
## 10  2001   131
## # … with 74 more rows
```
…
