Chapter 10 Data Science Exercise | Computational Programming for the Social Sciences
…
The professor had also asked for the per year sightings and then the mean number.

We can also just return to the yearly intermediate dataset just to limit the amount of work we have to redo.

mean(bigfoot_yearly$n, na.rm = T) 

## [1] 59.77381

# out of my own curiosity, I want to see what the max number of sightings per year is and when that was... 

bigfoot_yearly %>% 
  arrange(desc(n))

## # A tibble: 84 × 2
## # Groups:   year [84]
##     year     n
##    <dbl> <int>
##  1    NA   976
##  2  2004   241
##  3  2005   209
##  4  2006   176
##  5  2003   152
##  6  2000   146
##  7  2007   145
##  8  2008   141
##  9  2012   141
## 10  2001   131
## # … with 74 more rows
…
